^C:\USERS\CHARL\PROJETS_FLUTTER\CESI-D1L2-FLUTTER\GIVE_ME_PIZZA\WINDOWS\FLUTTER\EPHEMERAL\CPP_CLIENT_WRAPPER\CORE_IMPLEMENTATIONS.CC
/c /I"C:\USERS\CHARL\PROJETS_FLUTTER\CESI-D1L2-FLUTTER\GIVE_ME_PIZZA\WINDOWS\FLUTTER\EPHEMERAL\CPP_CLIENT_WRAPPER\INCLUDE" /I"C:\USERS\CHARL\PROJETS_FLUTTER\CESI-D1L2-FLUTTER\GIVE_ME_PIZZA\WINDOWS\FLUTTER\EPHEMERAL" /Zi /nologo /W4 /WX /diagnostics:column /Od /Ob0 /D _UNICODE /D UNICODE /D WIN32 /D _WINDOWS /D _HAS_EXCEPTIONS=0 /D _DEBUG /D UNICODE /D _UNICODE /D "CMAKE_INTDIR=\"Debug\"" /Gm- /EHsc /RTC1 /MDd /GS /fp:precise /Zc:wchar_t /Zc:forScope /Zc:inline /GR /std:c++17 /Fo"FLUTTER_WRAPPER_PLUGIN.DIR\DEBUG\\" /Fd"C:\USERS\CHARL\PROJETS_FLUTTER\CESI-D1L2-FLUTTER\GIVE_ME_PIZZA\BUILD\WINDOWS\X64\FLUTTER\DEBUG\FLUTTER_WRAPPER_PLUGIN.PDB" /external:W4 /Gd /TP /wd4100 C:\USERS\CHARL\PROJETS_FLUTTER\CESI-D1L2-FLUTTER\GIVE_ME_PIZZA\WINDOWS\FLUTTER\EPHEMERAL\CPP_CLIENT_WRAPPER\CORE_IMPLEMENTATIONS.CC
^C:\USERS\CHARL\PROJETS_FLUTTER\CESI-D1L2-FLUTTER\GIVE_ME_PIZZA\WINDOWS\FLUTTER\EPHEMERAL\CPP_CLIENT_WRAPPER\STANDARD_CODEC.CC
/c /I"C:\USERS\CHARL\PROJETS_FLUTTER\CESI-D1L2-FLUTTER\GIVE_ME_PIZZA\WINDOWS\FLUTTER\EPHEMERAL\CPP_CLIENT_WRAPPER\INCLUDE" /I"C:\USERS\CHARL\PROJETS_FLUTTER\CESI-D1L2-FLUTTER\GIVE_ME_PIZZA\WINDOWS\FLUTTER\EPHEMERAL" /Zi /nologo /W4 /WX /diagnostics:column /Od /Ob0 /D _UNICODE /D UNICODE /D WIN32 /D _WINDOWS /D _HAS_EXCEPTIONS=0 /D _DEBUG /D UNICODE /D _UNICODE /D "CMAKE_INTDIR=\"Debug\"" /Gm- /EHsc /RTC1 /MDd /GS /fp:precise /Zc:wchar_t /Zc:forScope /Zc:inline /GR /std:c++17 /Fo"FLUTTER_WRAPPER_PLUGIN.DIR\DEBUG\\" /Fd"C:\USERS\CHARL\PROJETS_FLUTTER\CESI-D1L2-FLUTTER\GIVE_ME_PIZZA\BUILD\WINDOWS\X64\FLUTTER\DEBUG\FLUTTER_WRAPPER_PLUGIN.PDB" /external:W4 /Gd /TP /wd4100 C:\USERS\CHARL\PROJETS_FLUTTER\CESI-D1L2-FLUTTER\GIVE_ME_PIZZA\WINDOWS\FLUTTER\EPHEMERAL\CPP_CLIENT_WRAPPER\STANDARD_CODEC.CC
^C:\USERS\CHARL\PROJETS_FLUTTER\CESI-D1L2-FLUTTER\GIVE_ME_PIZZA\WINDOWS\FLUTTER\EPHEMERAL\CPP_CLIENT_WRAPPER\PLUGIN_REGISTRAR.CC
/c /I"C:\USERS\CHARL\PROJETS_FLUTTER\CESI-D1L2-FLUTTER\GIVE_ME_PIZZA\WINDOWS\FLUTTER\EPHEMERAL\CPP_CLIENT_WRAPPER\INCLUDE" /I"C:\USERS\CHARL\PROJETS_FLUTTER\CESI-D1L2-FLUTTER\GIVE_ME_PIZZA\WINDOWS\FLUTTER\EPHEMERAL" /Zi /nologo /W4 /WX /diagnostics:column /Od /Ob0 /D _UNICODE /D UNICODE /D WIN32 /D _WINDOWS /D _HAS_EXCEPTIONS=0 /D _DEBUG /D UNICODE /D _UNICODE /D "CMAKE_INTDIR=\"Debug\"" /Gm- /EHsc /RTC1 /MDd /GS /fp:precise /Zc:wchar_t /Zc:forScope /Zc:inline /GR /std:c++17 /Fo"FLUTTER_WRAPPER_PLUGIN.DIR\DEBUG\\" /Fd"C:\USERS\CHARL\PROJETS_FLUTTER\CESI-D1L2-FLUTTER\GIVE_ME_PIZZA\BUILD\WINDOWS\X64\FLUTTER\DEBUG\FLUTTER_WRAPPER_PLUGIN.PDB" /external:W4 /Gd /TP /wd4100 C:\USERS\CHARL\PROJETS_FLUTTER\CESI-D1L2-FLUTTER\GIVE_ME_PIZZA\WINDOWS\FLUTTER\EPHEMERAL\CPP_CLIENT_WRAPPER\PLUGIN_REGISTRAR.CC
