C:\Users\charl\projets_flutter\cesi-d1l2-flutter\give_me_pizza\windows\flutter\ephemeral\cpp_client_wrapper\core_implementations.cc;C:\Users\charl\projets_flutter\cesi-d1l2-flutter\give_me_pizza\build\windows\x64\flutter\flutter_wrapper_plugin.dir\Debug\core_implementations.obj
C:\Users\charl\projets_flutter\cesi-d1l2-flutter\give_me_pizza\windows\flutter\ephemeral\cpp_client_wrapper\standard_codec.cc;C:\Users\charl\projets_flutter\cesi-d1l2-flutter\give_me_pizza\build\windows\x64\flutter\flutter_wrapper_plugin.dir\Debug\standard_codec.obj
C:\Users\charl\projets_flutter\cesi-d1l2-flutter\give_me_pizza\windows\flutter\ephemeral\cpp_client_wrapper\plugin_registrar.cc;C:\Users\charl\projets_flutter\cesi-d1l2-flutter\give_me_pizza\build\windows\x64\flutter\flutter_wrapper_plugin.dir\Debug\plugin_registrar.obj
