^C:\USERS\CHARL\PROJETS_FLUTTER\CESI-D1L2-FLUTTER\GIVE_ME_PIZZA\WINDOWS\RUNNER\CMAKELISTS.TXT
setlocal
"C:\Program Files\Microsoft Visual Studio\2022\Community\Common7\IDE\CommonExtensions\Microsoft\CMake\CMake\bin\cmake.exe" -SC:/Users/charl/projets_flutter/cesi-d1l2-flutter/give_me_pizza/windows -BC:/Users/charl/projets_flutter/cesi-d1l2-flutter/give_me_pizza/build/windows/x64 --check-stamp-file C:/Users/charl/projets_flutter/cesi-d1l2-flutter/give_me_pizza/build/windows/x64/runner/CMakeFiles/generate.stamp
if %errorlevel% neq 0 goto :cmEnd
:cmEnd
endlocal & call :cmErrorLevel %errorlevel% & goto :cmDone
:cmErrorLevel
exit /b %1
:cmDone
if %errorlevel% neq 0 goto :VCEnd
