^C:\USERS\CHARL\PROJETS_FLUTTER\CESI-D1L2-FLUTTER\GIVE_ME_PIZZA\BUILD\WINDOWS\X64\CMAKEFILES\67E0B6959DB7E05F0EB603F9A63B58FC\INSTALL_FORCE.RULE
setlocal
cd .
if %errorlevel% neq 0 goto :cmEnd
:cmEnd
endlocal & call :cmErrorLevel %errorlevel% & goto :cmDone
:cmErrorLevel
exit /b %1
:cmDone
if %errorlevel% neq 0 goto :VCEnd
